<?xml version="1.0" standalone="no"?>
<!DOCTYPE svg PUBLIC "-//W3C//DTD SVG 20010904//EN"
 "http://www.w3.org/TR/2001/REC-SVG-20010904/DTD/svg10.dtd">
<svg version="1.0" xmlns="http://www.w3.org/2000/svg"
 width="1080.000000pt" height="1080.000000pt" viewBox="0 0 1080.000000 1080.000000"
 preserveAspectRatio="xMidYMid meet">
<g transform="translate(0.000000,1080.000000) scale(0.100000,-0.100000)"
fill="#000000" stroke="none">
<path d="M0 5400 l0 -5400 5400 0 5400 0 0 5400 0 5400 -5400 0 -5400 0 0
-5400z m4800 3692 c110 -43 210 -143 251 -252 42 -111 34 -262 -20 -369 -37
-72 -117 -148 -198 -188 -68 -34 -85 -38 -172 -41 -79 -3 -107 0 -159 17 -106
36 -183 95 -239 184 -84 133 -84 341 1 475 52 83 170 168 263 192 64 16 211 6
273 -18z m1593 -2 c163 -62 277 -232 277 -410 0 -174 -98 -327 -258 -403 -63
-30 -73 -32 -182 -32 -112 0 -117 1 -190 36 -97 47 -162 112 -209 209 -35 73
-36 78 -36 190 0 109 2 119 32 183 56 117 174 218 289 246 66 17 212 7 277
-19z m416 -1437 c344 -24 942 -24 1314 1 200 14 291 16 298 9 6 -6 15 -39 21
-74 8 -50 7 -76 -3 -119 l-14 -55 -105 -12 c-227 -26 -468 -85 -546 -134 -45
-28 -77 -91 -106 -209 -8 -31 -13 -521 -18 -1580 -5 -1032 -11 -1564 -18
-1625 -40 -318 -72 -473 -142 -687 -269 -818 -876 -1269 -1832 -1359 -170 -15
-557 -7 -703 16 -631 98 -1139 413 -1465 910 -123 188 -240 471 -294 715 -62
280 -59 191 -66 2000 -6 1461 -9 1664 -23 1733 -8 44 -23 87 -33 98 -21 23
-106 55 -196 74 -85 18 -298 45 -355 45 -38 0 -45 4 -54 26 -28 75 -18 217 17
231 8 3 160 -3 337 -13 412 -24 1001 -24 1377 -1 368 23 356 24 369 -14 15
-44 14 -153 -3 -193 l-14 -33 -93 -7 c-202 -15 -413 -57 -475 -95 -36 -22 -48
-58 -66 -191 -19 -138 -19 -2867 0 -3055 61 -611 214 -1023 490 -1316 291
-310 754 -460 1292 -420 319 24 554 89 765 211 470 270 719 781 765 1570 13
224 13 2614 0 2812 -15 237 -55 329 -165 379 -105 47 -418 119 -520 119 -30 0
-35 4 -46 38 -14 39 -17 191 -5 211 9 15 35 14 315 -6z"/>
</g>
</svg>
